+================================+
|				 |
|        NAME OF SCRIPT          |
|				 |
+================================+
|   	 VER 0.1.05 ALPHA 	 |
+================================+
| 1 - Ching Chang    	         |
| 2 - Ching Chang                |
| 3 - Ching Chang		 |
| 4 - What the F!                |
+================================+


